…
    ## New names:
    ## * `` -> ...15
    ## * `` -> ...16
    ## * `` -> ...17

``` r
litter_data
```

    ## # A tibble: 488 × 17
    ##    dumpster month  year date                weight_tons volume_cubic_yards
    ##    <chr>    <chr> <dbl> <dttm>                    <dbl>              <dbl>
    ##  1 1.0      May    2014 2014-05-16 00:00:00        4.31                 18
    ##  2 2.0      May    2014 2014-05-16 00:00:00        2.74                 13
    ##  3 3.0      May    2014 2014-05-16 00:00:00        3.45                 15
    ##  4 4.0      May    2014 2014-05-17 00:00:00        3.1                  15
    ##  5 5.0      May    2014 2014-05-17 00:00:00        4.06                 18
    ##  6 6.0      May    2014 2014-05-20 00:00:00        2.71                 13
    ##  7 7.0      May    2014 2014-05-21 00:00:00        1.91                  8
    ##  8 8.0      May    2014 2014-05-28 00:00:00        3.7                  16
    ##  9 9.0      June   2014 2014-06-05 00:00:00        2.52                 14
    ## 10 10.0     June   2014 2014-06-11 00:00:00        3.76                 18
    ## # … with 478 more rows, and 11 more variables: plastic_bottles <dbl>,
    ## #   polystyrene <dbl>, cigarette_butts <dbl>, glass_bottles <dbl>,
    ## #   grocery_bags <dbl>, chip_bags <dbl>, sports_balls <dbl>,
    ## #   homes_powered <dbl>, x15 <chr>, x16 <lgl>, x17 <lgl>
…
